Oncostat R - analyses
…
Utilisation

Pour l’exemple, on utilisera la base de données edc_example() qui mime le résultat d’une fonction d’import.

db = edc_example()
db
#> ── EDCimport database ───────────────────────────────────────────────────────────────────────────────────
#> Contains 8 tables: `enrol`, `data1`, `data2`, …, `long_mixed`, and `ae`
#> ℹ Use `EDCimport::load_database(db)` to load the tables in the global environment.
#> ℹ Use `EDCimport::edc_lookup()` to see the summary table.

load_database(db)
ae
#> # A tibble: 175 × 7
#>    subjid crfname        aesoc                                                   aegr  n_ae sae   crfstat
#>     <int> <chr>          <chr>                                                  <int> <int> <fct> <chr>  
#>  1      1 Adverse events Endocrine disorders                                        2     5 No    Incomp…
#>  2      1 Adverse events Gastrointestinal disorders                                 2     5 No    Comple…
#>  3      1 Adverse events Reproductive system and breast disorders                   2     5 No    Comple…
#>  4      1 Adverse events Renal and urinary disorders                                3     5 No    Comple…
#>  5      1 Adverse events Neoplasms benign, malignant and unspecified (incl cys…     1     5 No    Comple…
#>  6      2 Adverse events Vascular disorders                                         3     5 No    Incomp…
#>  7      2 Adverse events Nervous system disorders                                   3     5 No    Comple…
#>  8      2 Adverse events Injury, poisoning and procedural complications             1     5 No    Comple…
#>  9      2 Adverse events Hepatobiliary disorders                                    1     5 No    Comple…
#> 10      2 Adverse events Injury, poisoning and procedural complications             2     5 No    Comple…
#> # ℹ 165 more rows
…
