Oncostat R - Statistiques
…
Tests : variables numériques

Pour les variables numériques, on utilise soit le t-test, soit le test de Wilcoxon.

Data
2-sample t-test
1-sample t-test
2-sample Wilcoxon
Attention!

db = mtcars2 %>% 
  select(mpg, am)
db
#> # A tibble: 32 × 2
#>    mpg        am        
#>    <labelled> <labelled>
#>  1 21.0       manual    
#>  2 21.0       manual    
#>  3 22.8       manual    
#>  4 21.4       auto      
#>  5 18.7       auto      
#>  6 18.1       auto      
#>  7 14.3       auto      
#>  8 24.4       auto      
#>  9 22.8       auto      
#> 10 19.2       auto      
#> # ℹ 22 more rows
…
Ici, am est binaire 0/1 et est traité comme une valeur numérique (moyenne 0.4).

Tests : variables catégorielles

Pour les variables catégorielles, on utilise soit le test du Chi², soit le test exact de Fisher.

Data
2-sample Chi-squared test
2-sample Fisher exact test

db = mtcars2 %>% 
  select(am, vs)
db
#> # A tibble: 32 × 2
#>    am         vs        
#>    <labelled> <labelled>
#>  1 manual     vshaped   
#>  2 manual     vshaped   
#>  3 manual     straight  
#>  4 auto       straight  
#>  5 auto       vshaped   
#>  6 auto       straight  
#>  7 auto       vshaped   
#>  8 auto       straight  
#>  9 auto       straight  
#> 10 auto       straight  
#> # ℹ 22 more rows
…
L’objet fit contient toutes les informations de notre modèle.

On peut visualiser le résultat avec la summary(fit), ou mieux avec broom::tidy(fit) ou gtsummary::tbl_regression().

Données d’exemple

Pour commencer, on va utiliser les données simulées du dataset ae de grstat_example() contenant : le grade des adverse events aegr, le fait qu’il soit SAE sae, et la causalité aerel.

On va d’abord modéliser aegr (modèle linéaire), puis sae (modèle logistique).

Aperçu des données :

db = grstat::grstat_example(seed=100)
db$ae %>% select(subjid, aegr, sae, aerel) %>% print(n=2)
#> # A tibble: 606 × 4
#>   subjid  aegr sae   aerel       
#>    <int> <dbl> <fct> <chr>       
#> 1      1     4 No    Radiotherapy
#> 2      1     2 No    Radiotherapy
#> # ℹ 604 more rows
…
      # labels
      arm =  factor(arm,  labels=c("Control", "Treatment")),
      bm_bin = factor(bm_bin, labels=c("Negative", "Positive")),
    )

  rtn %>%
    select(subjid, arm, t, event, bm_bin, bm_cont)
} 

df = surv_example()
df
#> # A tibble: 300 × 6
#>    subjid arm          t event bm_bin    bm_cont
#>     <int> <fct>    <dbl> <dbl> <fct>       <dbl>
#>  1      1 Control 29.4       1 Positive -0.0407 
#>  2      2 Control 23.7       1 Positive -1.55   
#>  3      3 Control 28.6       1 Negative  1.17   
#>  4      4 Control 30         0 Positive -0.274  
#>  5      5 Control  1.38      1 Positive -0.468  
#>  6      6 Control  2.18      1 Negative -1.24   
#>  7      7 Control  0.942     1 Positive -0.00776
#>  8      8 Control 30         0 Negative -0.800  
#>  9      9 Control  5.31      1 Positive -0.533  
#> 10     10 Control  7.79      1 Positive  1.29   
#> # ℹ 290 more rows
…
Liste

La liste des fonctions est accessible dans les références de la doc.

Données d’exemple

On va utiliser une base de données d’exemple.

library(grstat)
db = grstat_example(r=0.4)
attach(db, warn.conflicts=FALSE)

db
#> $enrolres
#> # A tibble: 200 × 4
#>    subjid arm       arm3        crfname 
#>     <int> <fct>     <fct>       <chr>   
#>  1      1 Control   Treatment B enrolres
#>  2      2 Control   Control     enrolres
#>  3      3 Treatment Treatment A enrolres
#>  4      4 Control   Control     enrolres
#>  5      5 Treatment Treatment A enrolres
#>  6      6 Treatment Treatment A enrolres
#>  7      7 Treatment Control     enrolres
#>  8      8 Treatment Treatment A enrolres
#>  9      9 Control   Treatment B enrolres
#> 10     10 Control   Treatment B enrolres
#> # ℹ 190 more rows
#> 
#> $ae
#> # A tibble: 622 × 7
#>    subjid aesoc                                           aeterm                 aegr sae   aerel crfname
#>     <int> <chr>                                           <chr>                 <dbl> <fct> <chr> <chr>  
#>  1      2 Eye disorders                                   Eyelid disorders          1 No    Expe… ae     
#>  2      2 Cardiac disorders                               Heart failures            4 Yes   Stan… ae     
#>  3      2 Surgical and medical procedures                 Therapeutic procedur…     1 No    Other ae     
#>  4      3 Respiratory, thoracic and mediastinal disorders Pulmonary vascular d…     1 No    Stan… ae     
#>  5      3 Surgical and medical procedures                 Diagnostic procedures     3 No    Canc… ae     
#>  6      3 Neoplasms benign, malignant, and unspecified    Malignant neoplasms       1 Yes   Radi… ae     
#>  7      4 Skin and subcutaneous tissue disorders          Skin and subcutaneou…     1 No    Canc… ae     
#>  8      4 Investigations                                  Blood analyses            3 No    Stan… ae     
#>  9      5 Endocrine disorders                             Adrenal gland disord…     2 No    Expe… ae     
#> 10      5 Ear and labyrinth disorders                     Vertigo and balance …     1 No    Canc… ae     
#> # ℹ 612 more rows
…
