Oncostat R - analyses
…
L’objet fit contient toutes les informations de notre modèle.

On peut visualiser le résultat avec la summary(fit), ou mieux avec broom::tidy(fit) ou gtsummary::tbl_regression().

Données d’exemple

Pour commencer, on va utiliser les données simulées du dataset ae de grstat_example() contenant : le grade des adverse events aegr, le fait qu’il soit SAE sae, et la causalité aerel.

On va d’abord modéliser aegr (modèle linéaire), puis sae (modèle logistique).

Aperçu des données :

db = grstat::grstat_example(seed=100)
db$ae %>% select(subjid, aegr, sae, aerel) %>% print(n=2)
#> # A tibble: 606 × 4
#>   subjid  aegr sae   aerel       
#>    <int> <dbl> <fct> <chr>       
#> 1      1     4 No    Radiotherapy
#> 2      1     2 No    Radiotherapy
#> # ℹ 604 more rows
…
      # labels
      arm =  factor(arm,  labels=c("Control", "Treatment")),
      bm1 = factor(bm1, labels=c("Negative", "Positive")),
    )

  rtn %>%
    select(subjid, arm, t, event, bm1, bm2)
} 

df = surv_example()
df %>% print(n=2)
#> # A tibble: 300 × 6
#>   subjid arm         t event bm1          bm2
#>    <int> <fct>   <dbl> <dbl> <fct>      <dbl>
#> 1      1 Control  29.4     1 Positive -0.0407
#> 2      2 Control  23.7     1 Positive -1.55  
#> # ℹ 298 more rows
…
